<svg xmlns="http://www.w3.org/2000/svg" width="646.4" height="615.7" viewBox="0 0 646.4 615.7">
  <style>
    .st0{fill:#0386a5}
  </style>
  <path class="st0" d="M451.6 491.1l-43.1-54c6.4-4.7 12.5-9.9 18.2-15.6l4-4-4-4-24.8-24.8-4-4-4 4c-20.6 20.6-47.9 31.9-76.9 31.9-60 0-108.8-48.8-108.8-108.8S257 203 317 203c29.1 0 56.4 11.3 76.9 31.9l4 4 4-4 24.8-24.8 4-4-4-4c-4.9-4.9-10.2-9.5-15.7-13.7l24.4-29.6c11.8 4.4 25.6 1.1 34.1-9.2 10.7-13 8.8-32.2-4.1-42.9-13-10.7-32.2-8.8-42.9 4.1-8.5 10.3-9.1 24.4-2.5 35.2l-25.7 31.2c-5.5-3.1-11.1-5.9-16.9-8.4-19.1-8.1-39.5-12.2-60.4-12.2-3.1 0-6.2.1-9.3.3l-9-41.4c24.8-10.2 39.6-37 33.7-64.2-6.6-30.5-36.7-49.9-67.2-43.3-30.5 6.6-49.9 36.7-43.3 67.2 5.9 27.2 30.4 45.5 57.2 44.5l8.6 39.7c-10.7 2-21.1 5.2-31.2 9.5-18.5 7.8-35.1 19-49.4 33.3-5.5 5.5-10.5 11.3-15 17.4l-17-13.7c6.8-16.3 2.4-35.8-12-47.4-17.5-14.1-43.2-11.4-57.3 6.2-14.1 17.5-11.4 43.2 6.2 57.3 15.2 12.3 36.6 11.8 51.2 0l18.1 14.6c-2.7 4.9-5.2 9.9-7.3 15-8.1 19.1-12.2 39.5-12.2 60.4 0 21 4.1 41.3 12.2 60.4 2.1 5 4.5 9.8 7.1 14.5L129.7 420c-15.5-15.6-40.4-18.8-59.6-6.4-22.1 14.3-28.5 43.8-14.2 65.9s43.8 28.5 65.9 14.2c19.3-12.4 26.6-36.4 18.8-57l51.3-33.1c4.7 6.3 9.8 12.3 15.4 18 14.3 14.3 30.9 25.5 49.4 33.3 4.6 1.9 9.3 3.7 14 5.1l-6.5 38.6c-15.7 1.8-29 13.7-31.7 30.1-3.3 19.8 10 38.5 29.8 41.8 19.8 3.3 38.5-10 41.8-29.8 2.8-16.4-5.9-32-20.2-38.8l6.3-37.2c8.8 1.5 17.8 2.3 27 2.3 21 0 41.3-4.1 60.4-12.2 4.9-2.1 9.6-4.4 14.2-6.9l44.4 55.7c-20.5 22.5-22.3 57.2-2.7 81.7 21.7 27.2 61.4 31.7 88.6 10 27.2-21.7 31.7-61.4 10-88.6-19.8-24.5-54-30.5-80.5-15.6z"/>
  <path class="st0" d="M645.3 227.1c-5.7-25.7-31.2-41.9-56.9-36.2-22.4 5-37.5 24.9-37.4 46.9l-154.6 34.3C381.9 243 351.8 223 317.1 223c-49 0-88.7 39.7-88.7 88.7s39.7 88.7 88.7 88.7 88.7-39.7 88.7-88.7c0-7.1-.8-14-2.4-20.6l152-33.7c9.2 20 31.3 31.7 53.7 26.7 25.7-5.8 41.9-31.3 36.2-57zM336 21.3c28.9 2.8 57 9.9 83.9 21.3 34.3 14.5 65.1 35.3 91.5 61.7 23 23 41.7 49.3 55.7 78.3 5.4-3.1 11.5-5.5 17.9-7 .3-.1.6-.1.8-.2C536.9 72.9 433 1.7 312.3 0c3.5 1.9 6.8 4.1 9.9 6.6 5.3 4.3 9.9 9.2 13.8 14.7zM104.3 104.3c26.4-26.4 57.2-47.2 91.5-61.7 4.6-2 9.3-3.8 14-5.5 3.9-10.1 10-19.2 17.8-26.6C96.5 45.8 0 165.5 0 307.8c0 49.3 11.6 95.8 32.1 137.1.5-2.5 1.1-5 1.8-7.5 2-6.4 4.9-12.3 8.6-17.6-15-35.5-22.6-73.2-22.6-112 0-38.9 7.6-76.6 22.6-112 14.6-34.3 35.4-65.1 61.8-91.5zM612.5 299.3c-4.5 1-9.2 1.5-13.8 1.5-1 0-2.1 0-3.1-.1.1 2.3.1 4.7.1 7.1 0 38.9-7.6 76.6-22.6 112-10.1 23.9-23.3 46.1-39.3 66.4 3.8 3.2 7.2 6.8 10.4 10.8 1.1 1.4 2.2 2.8 3.2 4.3 42.8-52.9 68.4-120.2 68.4-193.5 0-3.1-.1-6.2-.1-9.2-1.2.2-2.2.5-3.2.7zM307.8 595.7c-38.9 0-76.6-7.6-112-22.6-31.6-13.3-60.1-32-85.1-55.5-5.3 1.4-10.7 2.1-16.2 2.1-3.7 0-7.3-.3-10.9-.9 56.1 59.7 135.8 96.9 224.2 96.9 39.8 0 77.8-7.5 112.7-21.3-4.3-5.5-7.7-11.3-10.3-17.5-32.6 12.5-67 18.8-102.4 18.8z"/>
</svg>
